{
  "appName": {
    "message": "Pavlok Crypt"
  },
  "extName": {
    "message": "Pavlok Crypt - Secure Password Manager",
    "description": "Extension name"
  },
  "extDesc": {
    "message": "A secure and shareable password manager.",
    "description": "Extension description"
  },
  "loginOrCreateNewAccount": {
    "message": "Log in or create a new account to access your secure vault."
  },
  "createAccount": {
    "message": "Create Account"
  },
  "login": {
    "message": "Log In"
  },
  "enterpriseSingleSignOn": {
    "message": "Enterprise Single Sign-On"
  },
  "cancel": {
    "message": "Cancel"
  },
  "close": {
    "message": "Close"
  },
  "submit": {
    "message": "Submit"
  },
  "emailAddress": {
    "message": "Email Address"
  },
  "masterPass": {
    "message": "Master Password"
  },
  "masterPassDesc": {
    "message": "The master password is the password you use to access your vault. It is very important that you do not forget your master password. There is no way to recover the password in the event that you forget it."
  },
  "masterPassHintDesc": {
    "message": "A master password hint can help you remember your password if you forget it."
  },
  "reTypeMasterPass": {
    "message": "Re-type Master Password"
  },
  "masterPassHint": {
    "message": "Master Password Hint (optional)"
  },
  "tab": {
    "message": "Tab"
  },
  "myVault": {
    "message": "My Vault"
  },
  "tools": {
    "message": "Tools"
  },
  "settings": {
    "message": "Settings"
  },
  "currentTab": {
    "message": "Current Tab"
  },
  "copyPassword": {
    "message": "Copy Password"
  },
  "copyNote": {
    "message": "Copy Note"
  },
  "copyUri": {
    "message": "Copy URI"
  },
  "copyUsername": {
    "message": "Copy Username"
  },
  "copyNumber": {
    "message": "Copy Number"
  },
  "copySecurityCode": {
    "message": "Copy Security Code"
  },
  "autoFill": {
    "message": "Auto-fill"
  },
  "generatePasswordCopied": {
    "message": "Generate Password (copied)"
  },
  "noMatchingLogins": {
    "message": "No matching logins."
  },
  "vaultLocked": {
    "message": "Vault is locked."
  },
  "vaultLoggedOut": {
    "message": "Vault is logged out."
  },
  "autoFillInfo": {
    "message": "There are no logins available to auto-fill for the current browser tab."
  },
  "addLogin": {
    "message": "Add a Login"
  },
  "addItem": {
    "message": "Add Item"
  },
  "passwordHint": {
    "message": "Password Hint"
  },
  "enterEmailToGetHint": {
    "message": "Enter your account email address to receive your master password hint."
  },
  "getMasterPasswordHint": {
    "message": "Get master password hint"
  },
  "continue": {
    "message": "Continue"
  },
  "verificationCode": {
    "message": "Verification Code"
  },
  "account": {
    "message": "Account"
  },
  "changeMasterPassword": {
    "message": "Change Master Password"
  },
  "fingerprintPhrase": {
    "message": "Fingerprint Phrase",
    "description": "A 'fingerprint phrase' is a unique word phrase (similar to a passphrase) that a user can use to authenticate their public key with another user, for the purposes of sharing."
  },
  "yourAccountsFingerprint": {
    "message": "Your account's fingerprint phrase",
    "description": "A 'fingerprint phrase' is a unique word phrase (similar to a passphrase) that a user can use to authenticate their public key with another user, for the purposes of sharing."
  },
  "twoStepLogin": {
    "message": "Two-step Login"
  },
  "logOut": {
    "message": "Log Out"
  },
  "about": {
    "message": "About"
  },
  "version": {
    "message": "Version"
  },
  "save": {
    "message": "Save"
  },
  "addFolder": {
    "message": "Add Folder"
  },
  "name": {
    "message": "Name"
  },
  "editFolder": {
    "message": "Edit Folder"
  },
  "deleteFolder": {
    "message": "Delete Folder"
  },
  "folders": {
    "message": "Folders"
  },
  "noFolders": {
    "message": "There are no folders to list."
  },
  "helpFeedback": {
    "message": "Help & Feedback"
  },
  "sync": {
    "message": "Sync"
  },
  "syncVaultNow": {
    "message": "Sync Vault Now"
  },
  "lastSync": {
    "message": "Last Sync:"
  },
  "passGen": {
    "message": "Password Generator"
  },
  "generator": {
    "message": "Generator",
    "description": "Short for 'Password Generator'."
  },
  "passGenInfo": {
    "message": "Automatically generate strong, unique passwords for your logins."
  },
  "bitWebVault": {
    "message": "Pavlok Crypt Web Vault"
  },
  "importItems": {
    "message": "Import Items"
  },
  "select": {
    "message": "Select"
  },
  "generatePassword": {
    "message": "Generate Password"
  },
  "regeneratePassword": {
    "message": "Regenerate Password"
  },
  "options": {
    "message": "Options"
  },
  "length": {
    "message": "Length"
  },
  "numWords": {
    "message": "Number of Words"
  },
  "wordSeparator": {
    "message": "Word Separator"
  },
  "capitalize": {
    "message": "Capitalize",
    "description": "Make the first letter of a work uppercase."
  },
  "includeNumber": {
    "message": "Include Number"
  },
  "minNumbers": {
    "message": "Minimum Numbers"
  },
  "minSpecial": {
    "message": "Minimum Special"
  },
  "avoidAmbChar": {
    "message": "Avoid Ambiguous Characters"
  },
  "searchVault": {
    "message": "Search vault"
  },
  "edit": {
    "message": "Edit"
  },
  "view": {
    "message": "View"
  },
  "noItemsInList": {
    "message": "There are no items to list."
  },
  "itemInformation": {
    "message": "Item Information"
  },
  "username": {
    "message": "Username"
  },
  "password": {
    "message": "Password"
  },
  "passphrase": {
    "message": "Passphrase"
  },
  "favorite": {
    "message": "Favorite"
  },
  "notes": {
    "message": "Notes"
  },
  "note": {
    "message": "Note"
  },
  "editItem": {
    "message": "Edit Item"
  },
  "folder": {
    "message": "Folder"
  },
  "deleteItem": {
    "message": "Delete Item"
  },
  "viewItem": {
    "message": "View Item"
  },
  "launch": {
    "message": "Launch"
  },
  "website": {
    "message": "Website"
  },
  "toggleVisibility": {
    "message": "Toggle Visibility"
  },
  "manage": {
    "message": "Manage"
  },
  "other": {
    "message": "Other"
  },
  "rateExtension": {
    "message": "Rate the Extension"
  },
  "rateExtensionDesc": {
    "message": "Please consider helping us out with a good review!"
  },
  "browserNotSupportClipboard": {
    "message": "Your web browser does not support easy clipboard copying. Copy it manually instead."
  },
  "verifyMasterPassword": {
    "message": "Verify Master Password"
  },
  "yourVaultIsLocked": {
    "message": "Your vault is locked. Verify your master password to continue."
  },
  "unlock": {
    "message": "Unlock"
  },
  "loggedInAsOn": {
    "message": "Logged in as $EMAIL$ on $HOSTNAME$.",
    "placeholders": {
      "email": {
        "content": "$1",
        "example": "name@example.com"
      },
      "hostname": {
        "content": "$2",
        "example": "pavlok.com"
      }
    }
  },
  "invalidMasterPassword": {
    "message": "Invalid master password"
  },
  "vaultTimeout": {
    "message": "Vault Timeout"
  },
  "lockNow": {
    "message": "Lock Now"
  },
  "immediately": {
    "message": "Immediately"
  },
  "tenSeconds": {
    "message": "10 seconds"
  },
  "twentySeconds": {
    "message": "20 seconds"
  },
  "thirtySeconds": {
    "message": "30 seconds"
  },
  "oneMinute": {
    "message": "1 minute"
  },
  "twoMinutes": {
    "message": "2 minutes"
  },
  "fiveMinutes": {
    "message": "5 minutes"
  },
  "fifteenMinutes": {
    "message": "15 minutes"
  },
  "thirtyMinutes": {
    "message": "30 minutes"
  },
  "oneHour": {
    "message": "1 hour"
  },
  "fourHours": {
    "message": "4 hours"
  },
  "onLocked": {
    "message": "On System Lock"
  },
  "onRestart": {
    "message": "On Browser Restart"
  },
  "never": {
    "message": "Never"
  },
  "security": {
    "message": "Security"
  },
  "errorOccurred": {
    "message": "An error has occurred"
  },
  "emailRequired": {
    "message": "Email address is required."
  },
  "invalidEmail": {
    "message": "Invalid email address."
  },
  "masterPassRequired": {
    "message": "Master password is required."
  },
  "masterPassLength": {
    "message": "Master password must be at least 8 characters long."
  },
  "masterPassDoesntMatch": {
    "message": "Master password confirmation does not match."
  },
  "newAccountCreated": {
    "message": "Your new account has been created! You may now log in."
  },
  "masterPassSent": {
    "message": "We've sent you an email with your master password hint."
  },
  "verificationCodeRequired": {
    "message": "Verification code is required."
  },
  "valueCopied": {
    "message": "$VALUE$ copied",
    "description": "Value has been copied to the clipboard.",
    "placeholders": {
      "value": {
        "content": "$1",
        "example": "Password"
      }
    }
  },
  "autofillError": {
    "message": "Unable to auto-fill the selected item on this page. Copy and paste the information instead."
  },
  "loggedOut": {
    "message": "Logged out"
  },
  "loginExpired": {
    "message": "Your login session has expired."
  },
  "logOutConfirmation": {
    "message": "Are you sure you want to log out?"
  },
  "yes": {
    "message": "Yes"
  },
  "no": {
    "message": "No"
  },
  "unexpectedError": {
    "message": "An unexpected error has occurred."
  },
  "nameRequired": {
    "message": "Name is required."
  },
  "addedFolder": {
    "message": "Added folder"
  },
  "changeMasterPass": {
    "message": "Change Master Password"
  },
  "changeMasterPasswordConfirmation": {
    "message": "You can change your master password on the crypt.pavlok.com web vault. Do you want to visit the website now?"
  },
  "twoStepLoginConfirmation": {
    "message": "Two-step login makes your account more secure by requiring you to verify your login with another device such as a security key, authenticator app, SMS, phone call, or email. Two-step login can be enabled on the crypt.pavlok.com web vault. Do you want to visit the website now?"
  },
  "editedFolder": {
    "message": "Edited folder"
  },
  "deleteFolderConfirmation": {
    "message": "Are you sure you want to delete this folder?"
  },
  "deletedFolder": {
    "message": "Deleted folder"
  },
  "gettingStartedTutorial": {
    "message": "Getting Started Tutorial"
  },
  "gettingStartedTutorialVideo": {
    "message": "Watch our getting started tutorial to learn how to get the most out of the browser extension."
  },
  "syncingComplete": {
    "message": "Syncing complete"
  },
  "syncingFailed": {
    "message": "Syncing failed"
  },
  "passwordCopied": {
    "message": "Password copied"
  },
  "uri": {
    "message": "URI"
  },
  "uriPosition": {
    "message": "URI $POSITION$",
    "description": "A listing of URIs. Ex: URI 1, URI 2, URI 3, etc.",
    "placeholders": {
      "position": {
        "content": "$1",
        "example": "2"
      }
    }
  },
  "newUri": {
    "message": "New URI"
  },
  "addedItem": {
    "message": "Added item"
  },
  "editedItem": {
    "message": "Edited item"
  },
  "deleteItemConfirmation": {
    "message": "Do you really want to send to the trash?"
  },
  "deletedItem": {
    "message": "Sent item to trash"
  },
  "overwritePassword": {
    "message": "Overwrite Password"
  },
  "overwritePasswordConfirmation": {
    "message": "Are you sure you want to overwrite the current password?"
  },
  "searchFolder": {
    "message": "Search folder"
  },
  "searchCollection": {
    "message": "Search collection"
  },
  "searchType": {
    "message": "Search type"
  },
  "noneFolder": {
    "message": "No Folder",
    "description": "This is the folder for uncategorized items"
  },
  "disableAddLoginNotification": {
    "message": "Disable Add Login Notification"
  },
  "addLoginNotificationDesc": {
    "message": "The \"Add Login Notification\" automatically prompts you to save new logins to your vault whenever you log into them for the first time."
  },
  "dontShowCardsCurrentTab": {
    "message": "Don't Show Cards on Tab Page"
  },
  "dontShowCardsCurrentTabDesc": {
    "message": "Card items from your vault are listed on the 'Current Tab' page for easy auto-fill access."
  },
  "dontShowIdentitiesCurrentTab": {
    "message": "Don't Show Identities on Tab Page"
  },
  "dontShowIdentitiesCurrentTabDesc": {
    "message": "Identity items from your vault are listed on the 'Current Tab' page for easy auto-fill access."
  },
  "clearClipboard": {
    "message": "Clear Clipboard",
    "description": "Clipboard is the operating system thing where you copy/paste data to on your device."
  },
  "clearClipboardDesc": {
    "message": "Automatically clear copied values from your clipboard.",
    "description": "Clipboard is the operating system thing where you copy/paste data to on your device."
  },
  "notificationAddDesc": {
    "message": "Should Pavlok Crypt remember this password for you?"
  },
  "notificationAddSave": {
    "message": "Yes, Save Now"
  },
  "notificationNeverSave": {
    "message": "Never for this website"
  },
  "disableChangedPasswordNotification": {
    "message": "Disable Changed Password Notification"
  },
  "disableChangedPasswordNotificationDesc": {
    "message": "The \"Changed Password Notification\" automatically prompts you to update a login's password in your vault whenever it detects that you have changed it on a website."
  },
  "notificationChangeDesc": {
    "message": "Do you want to update this password in Pavlok Crypt?"
  },
  "notificationChangeSave": {
    "message": "Yes, Update Now"
  },
  "disableContextMenuItem": {
    "message": "Disable Context Menu Options"
  },
  "disableContextMenuItemDesc": {
    "message": "Context menu options provide quick access to password generation and logins for the website in your current tab."
  },
  "defaultUriMatchDetection": {
    "message": "Default URI Match Detection",
    "description": "Default URI match detection for auto-fill."
  },
  "defaultUriMatchDetectionDesc": {
    "message": "Choose the default way that URI match detection is handled for logins when performing actions such as auto-fill."
  },
  "theme": {
    "message": "Theme"
  },
  "themeDesc": {
    "message": "Change the application's color theme."
  },
  "dark": {
    "message": "Dark",
    "description": "Dark color"
  },
  "light": {
    "message": "Light",
    "description": "Light color"
  },
  "exportVault": {
    "message": "Export Vault"
  },
  "fileFormat": {
    "message": "File Format"
  },
  "warning": {
    "message": "WARNING",
    "description": "WARNING (should stay in capitalized letters if the language permits)"
  },
  "confirmVaultExport": {
    "message": "Confirm Vault Export"
  },
  "exportWarningDesc": {
    "message": "This export contains your vault data in an unencrypted format. You should not store or send the exported file over unsecure channels (such as email). Delete it immediately after you are done using it."
  },
  "encExportKeyWarningDesc": {
    "message": "This export encrypts your data using your account's encryption key. If you ever rotate your account's encryption key you should export again since you will not be able to decrypt this export file."
  },
  "encExportAccountWarningDesc": {
    "message": "Account encryption keys are unique to each Pavlok Crypt user account, so you can't import an encrypted export into a different account."
  },
  "exportMasterPassword": {
    "message": "Enter your master password to export your vault data."
  },
  "shared": {
    "message": "Shared"
  },
  "shareVault": {
    "message": "Share Your Vault"
  },
  "shareVaultConfirmation": {
    "message": "Pavlok Crypt allows you to share your vault with others by using an organization account. Would you like to visit the crypt.pavlok.com website to learn more?"
  },
  "shareItem": {
    "message": "Share Item"
  },
  "share": {
    "message": "Share"
  },
  "sharedItem": {
    "message": "Shared Item"
  },
  "shareDesc": {
    "message": "Choose an organization that you wish to share this item with. Sharing transfers ownership of the item to the organization. You will no longer be the direct owner of this item once it has been shared."
  },
  "learnMore": {
    "message": "Learn more"
  },
  "authenticatorKeyTotp": {
    "message": "Authenticator Key (TOTP)"
  },
  "verificationCodeTotp": {
    "message": "Verification Code (TOTP)"
  },
  "copyVerificationCode": {
    "message": "Copy Verification Code"
  },
  "attachments": {
    "message": "Attachments"
  },
  "deleteAttachment": {
    "message": "Delete attachment"
  },
  "deleteAttachmentConfirmation": {
    "message": "Are you sure you want to delete this attachment?"
  },
  "deletedAttachment": {
    "message": "Deleted attachment"
  },
  "newAttachment": {
    "message": "Add New Attachment"
  },
  "noAttachments": {
    "message": "No attachments."
  },
  "attachmentSaved": {
    "message": "The attachment has been saved."
  },
  "file": {
    "message": "File"
  },
  "selectFile": {
    "message": "Select a file."
  },
  "maxFileSize": {
    "message": "Maximum file size is 500 MB."
  },
  "featureUnavailable": {
    "message": "Feature Unavailable"
  },
  "updateKey": {
    "message": "You cannot use this feature until you update your encryption key."
  },
  "premiumMembership": {
    "message": "Premium Membership"
  },
  "premiumManage": {
    "message": "Manage Membership"
  },
  "premiumManageAlert": {
    "message": "You can manage your membership on the crypt.pavlok.com web vault. Do you want to visit the website now?"
  },
  "premiumRefresh": {
    "message": "Refresh Membership"
  },
  "premiumNotCurrentMember": {
    "message": "You are not currently a premium member."
  },
  "premiumSignUpAndGet": {
    "message": "Sign up for a premium membership and get:"
  },
  "ppremiumSignUpStorage": {
    "message": "1 GB encrypted storage for file attachments."
  },
  "ppremiumSignUpTwoStep": {
    "message": "Additional two-step login options such as YubiKey, FIDO U2F, and Duo."
  },
  "ppremiumSignUpReports": {
    "message": "Password hygiene, account health, and data breach reports to keep your vault safe."
  },
  "ppremiumSignUpTotp": {
    "message": "TOTP verification code (2FA) generator for logins in your vault."
  },
  "ppremiumSignUpSupport": {
    "message": "Priority customer support."
  },
  "ppremiumSignUpFuture": {
    "message": "All future premium features. More coming soon!"
  },
  "premiumPurchase": {
    "message": "Purchase Premium"
  },
  "premiumPurchaseAlert": {
    "message": "You can purchase premium membership on the crypt.pavlok.com web vault. Do you want to visit the website now?"
  },
  "premiumCurrentMember": {
    "message": "You are a premium member!"
  },
  "premiumCurrentMemberThanks": {
    "message": "Thank you for supporting Pavlok Crypt."
  },
  "premiumPrice": {
    "message": "All for just $PRICE$ /year!",
    "placeholders": {
      "price": {
        "content": "$1",
        "example": "$10"
      }
    }
  },
  "refreshComplete": {
    "message": "Refresh complete"
  },
  "disableAutoTotpCopy": {
    "message": "Disable Automatic TOTP Copy"
  },
  "disableAutoTotpCopyDesc": {
    "message": "If your login has an authenticator key attached to it, the TOTP verification code is automatically copied to your clipboard whenever you auto-fill the login."
  },
  "premiumRequired": {
    "message": "Premium Required"
  },
  "premiumRequiredDesc": {
    "message": "A premium membership is required to use this feature."
  },
  "enterVerificationCodeApp": {
    "message": "Enter the 6 digit verification code from your authenticator app."
  },
  "enterVerificationCodeEmail": {
    "message": "Enter the 6 digit verification code that was emailed to $EMAIL$.",
    "placeholders": {
      "email": {
        "content": "$1",
        "example": "example@gmail.com"
      }
    }
  },
  "verificationCodeEmailSent": {
    "message": "Verification email sent to $EMAIL$.",
    "placeholders": {
      "email": {
        "content": "$1",
        "example": "example@gmail.com"
      }
    }
  },
  "rememberMe": {
    "message": "Remember me"
  },
  "sendVerificationCodeEmailAgain": {
    "message": "Send verification code email again"
  },
  "useAnotherTwoStepMethod": {
    "message": "Use another two-step login method"
  },
  "insertYubiKey": {
    "message": "Insert your YubiKey into your computer's USB port, then touch its button."
  },
  "insertU2f": {
    "message": "Insert your security key into your computer's USB port. If it has a button, touch it."
  },
  "webAuthnNewTab": {
    "message": "Continue the WebAuthn 2FA verification in the new tab."
  },
  "webAuthnAuthenticate": {
    "message": "Authenticate WebAuthn"
  },
  "loginUnavailable": {
    "message": "Login Unavailable"
  },
  "noTwoStepProviders": {
    "message": "This account has two-step login enabled, however, none of the configured two-step providers are supported by this web browser."
  },
  "noTwoStepProviders2": {
    "message": "Please use a supported web browser (such as Chrome) and/or add additional providers that are better supported across web browsers (such as an authenticator app)."
  },
  "twoStepOptions": {
    "message": "Two-step Login Options"
  },
  "recoveryCodeDesc": {
    "message": "Lost access to all of your two-factor providers? Use your recovery code to disable all two-factor providers from your account."
  },
  "recoveryCodeTitle": {
    "message": "Recovery Code"
  },
  "authenticatorAppTitle": {
    "message": "Authenticator App"
  },
  "authenticatorAppDesc": {
    "message": "Use an authenticator app (such as Authy or Google Authenticator) to generate time-based verification codes.",
    "description": "'Authy' and 'Google Authenticator' are product names and should not be translated."
  },
  "yubiKeyTitle": {
    "message": "YubiKey OTP Security Key"
  },
  "yubiKeyDesc": {
    "message": "Use a YubiKey to access your account. Works with YubiKey 4, 4 Nano, 4C, and NEO devices."
  },
  "duoDesc": {
    "message": "Verify with Duo Security using the Duo Mobile app, SMS, phone call, or U2F security key.",
    "description": "'Duo Security' and 'Duo Mobile' are product names and should not be translated."
  },
  "duoOrganizationDesc": {
    "message": "Verify with Duo Security for your organization using the Duo Mobile app, SMS, phone call, or U2F security key.",
    "description": "'Duo Security' and 'Duo Mobile' are product names and should not be translated."
  },
  "webAuthnTitle": {
    "message": "FIDO2 WebAuthn"
  },
  "webAuthnDesc": {
    "message": "Use any WebAuthn enabled security key to access your account."
  },
  "emailTitle": {
    "message": "Email"
  },
  "emailDesc": {
    "message": "Verification codes will be emailed to you."
  },
  "selfHostedEnvironment": {
    "message": "Self-hosted Environment"
  },
  "selfHostedEnvironmentFooter": {
    "message": "Specify the base URL of your on-premises hosted Bitwarde/Pavlok Crypt installation."
  },
  "customEnvironment": {
    "message": "Custom Environment"
  },
  "customEnvironmentFooter": {
    "message": "For advanced users. You can specify the base URL of each service independently."
  },
  "baseUrl": {
    "message": "Server URL"
  },
  "apiUrl": {
    "message": "API Server URL"
  },
  "webVaultUrl": {
    "message": "Web Vault Server URL"
  },
  "identityUrl": {
    "message": "Identity Server URL"
  },
  "notificationsUrl": {
    "message": "Notifications Server URL"
  },
  "iconsUrl": {
    "message": "Icons Server URL"
  },
  "environmentSaved": {
    "message": "The environment URLs have been saved."
  },
  "enableAutoFillOnPageLoad": {
    "message": "Enable Auto-fill On Page Load"
  },
  "enableAutoFillOnPageLoadDesc": {
    "message": "If a login form is detected, automatically perform an auto-fill when the web page loads."
  },
  "experimentalFeature": {
    "message": "This is currently an experimental feature. Use at your own risk."
  },
  "commandOpenPopup": {
    "message": "Open vault popup"
  },
  "commandOpenSidebar": {
    "message": "Open vault in sidebar"
  },
  "commandAutofillDesc": {
    "message": "Auto-fill the last used login for the current website"
  },
  "commandGeneratePasswordDesc": {
    "message": "Generate and copy a new random password to the clipboard"
  },
  "commandLockVaultDesc": {
    "message": "Lock the vault"
  },
  "privateModeMessage": {
    "message": "Unfortunately this window is not available in private mode for this browser."
  },
  "customFields": {
    "message": "Custom Fields"
  },
  "copyValue": {
    "message": "Copy Value"
  },
  "value": {
    "message": "Value"
  },
  "newCustomField": {
    "message": "New Custom Field"
  },
  "dragToSort": {
    "message": "Drag to sort"
  },
  "cfTypeText": {
    "message": "Text"
  },
  "cfTypeHidden": {
    "message": "Hidden"
  },
  "cfTypeBoolean": {
    "message": "Boolean"
  },
  "popup2faCloseMessage": {
    "message": "Clicking outside the popup window to check your email for your verification code will cause this popup to close. Do you want to open this popup in a new window so that it does not close?"
  },
  "popupU2fCloseMessage": {
    "message": "This browser cannot process U2F requests in this popup window. Do you want to open this popup in a new window so that you can log in using U2F?"
  },
  "disableFavicon": {
    "message": "Disable Website Icons"
  },
  "disableFaviconDesc": {
    "message": "Website Icons provide a recognizable image next to each login item in your vault."
  },
  "disableBadgeCounter": {
    "message": "Disable Badge Counter"
  },
  "disableBadgeCounterDesc": {
    "message": "Badge counter indicates how many logins you have for the current page in your vault."
  },
  "cardholderName": {
    "message": "Cardholder Name"
  },
  "number": {
    "message": "Number"
  },
  "brand": {
    "message": "Brand"
  },
  "expirationMonth": {
    "message": "Expiration Month"
  },
  "expirationYear": {
    "message": "Expiration Year"
  },
  "expiration": {
    "message": "Expiration"
  },
  "january": {
    "message": "January"
  },
  "february": {
    "message": "February"
  },
  "march": {
    "message": "March"
  },
  "april": {
    "message": "April"
  },
  "may": {
    "message": "May"
  },
  "june": {
    "message": "June"
  },
  "july": {
    "message": "July"
  },
  "august": {
    "message": "August"
  },
  "september": {
    "message": "September"
  },
  "october": {
    "message": "October"
  },
  "november": {
    "message": "November"
  },
  "december": {
    "message": "December"
  },
  "securityCode": {
    "message": "Security Code"
  },
  "ex": {
    "message": "ex."
  },
  "title": {
    "message": "Title"
  },
  "mr": {
    "message": "Mr"
  },
  "mrs": {
    "message": "Mrs"
  },
  "ms": {
    "message": "Ms"
  },
  "dr": {
    "message": "Dr"
  },
  "firstName": {
    "message": "First Name"
  },
  "middleName": {
    "message": "Middle Name"
  },
  "lastName": {
    "message": "Last Name"
  },
  "identityName": {
    "message": "Identity Name"
  },
  "company": {
    "message": "Company"
  },
  "ssn": {
    "message": "Social Security Number"
  },
  "passportNumber": {
    "message": "Passport Number"
  },
  "licenseNumber": {
    "message": "License Number"
  },
  "email": {
    "message": "Email"
  },
  "phone": {
    "message": "Phone"
  },
  "address": {
    "message": "Address"
  },
  "address1": {
    "message": "Address 1"
  },
  "address2": {
    "message": "Address 2"
  },
  "address3": {
    "message": "Address 3"
  },
  "cityTown": {
    "message": "City / Town"
  },
  "stateProvince": {
    "message": "State / Province"
  },
  "zipPostalCode": {
    "message": "Zip / Postal Code"
  },
  "country": {
    "message": "Country"
  },
  "type": {
    "message": "Type"
  },
  "typeLogin": {
    "message": "Login"
  },
  "typeLogins": {
    "message": "Logins"
  },
  "typeSecureNote": {
    "message": "Secure Note"
  },
  "typeCard": {
    "message": "Card"
  },
  "typeIdentity": {
    "message": "Identity"
  },
  "passwordHistory": {
    "message": "Password History"
  },
  "back": {
    "message": "Back"
  },
  "collections": {
    "message": "Collections"
  },
  "favorites": {
    "message": "Favorites"
  },
  "popOutNewWindow": {
    "message": "Pop out to a new window"
  },
  "refresh": {
    "message": "Refresh"
  },
  "cards": {
    "message": "Cards"
  },
  "identities": {
    "message": "Identities"
  },
  "logins": {
    "message": "Logins"
  },
  "secureNotes": {
    "message": "Secure Notes"
  },
  "clear": {
    "message": "Clear",
    "description": "To clear something out. example: To clear browser history."
  },
  "checkPassword": {
    "message": "Check if password has been exposed."
  },
  "passwordExposed": {
    "message": "This password has been exposed $VALUE$ time(s) in data breaches. You should change it.",
    "placeholders": {
      "value": {
        "content": "$1",
        "example": "2"
      }
    }
  },
  "passwordSafe": {
    "message": "This password was not found in any known data breaches. It should be safe to use."
  },
  "baseDomain": {
    "message": "Base domain"
  },
  "host": {
    "message": "Host",
    "description": "A URL's host value. For example, the host of https://sub.domain.com:443 is 'sub.domain.com:443'."
  },
  "exact": {
    "message": "Exact"
  },
  "startsWith": {
    "message": "Starts with"
  },
  "regEx": {
    "message": "Regular expression",
    "description": "A programming term, also known as 'RegEx'."
  },
  "matchDetection": {
    "message": "Match Detection",
    "description": "URI match detection for auto-fill."
  },
  "defaultMatchDetection": {
    "message": "Default match detection",
    "description": "Default URI match detection for auto-fill."
  },
  "toggleOptions": {
    "message": "Toggle Options"
  },
  "toggleCurrentUris": {
    "message": "Toggle Current URIs",
    "description": "Toggle the display of the URIs of the currently open tabs in the browser."
  },
  "currentUri": {
    "message": "Current URI",
    "description": "The URI of one of the current open tabs in the browser."
  },
  "organization": {
    "message": "Organization",
    "description": "An entity of multiple related people (ex. a team or business organization)."
  },
  "types": {
    "message": "Types"
  },
  "allItems": {
    "message": "All Items"
  },
  "noPasswordsInList": {
    "message": "There are no passwords to list."
  },
  "remove": {
    "message": "Remove"
  },
  "default": {
    "message": "Default"
  },
  "dateUpdated": {
    "message": "Updated",
    "description": "ex. Date this item was updated"
  },
  "datePasswordUpdated": {
    "message": "Password Updated",
    "description": "ex. Date this password was updated"
  },
  "neverLockWarning": {
    "message": "Are you sure you want to use the \"Never\" option? Setting your lock options to \"Never\" stores your vault's encryption key on your device. If you use this option you should ensure that you keep your device properly protected."
  },
  "noOrganizationsList": {
    "message": "You do not belong to any organizations. Organizations allow you to securely share items with other users."
  },
  "noCollectionsInList": {
    "message": "There are no collections to list."
  },
  "ownership": {
    "message": "Ownership"
  },
  "whoOwnsThisItem": {
    "message": "Who owns this item?"
  },
  "strong": {
    "message": "Strong",
    "description": "ex. A strong password. Scale: Weak -> Good -> Strong"
  },
  "good": {
    "message": "Good",
    "description": "ex. A good password. Scale: Weak -> Good -> Strong"
  },
  "weak": {
    "message": "Weak",
    "description": "ex. A weak password. Scale: Weak -> Good -> Strong"
  },
  "weakMasterPassword": {
    "message": "Weak Master Password"
  },
  "weakMasterPasswordDesc": {
    "message": "The master password you have chosen is weak. You should use a strong master password (or a passphrase) to properly protect your Pavlok Crypt account. Are you sure you want to use this master password?"
  },
  "pin": {
    "message": "PIN",
    "description": "PIN code. Ex. The short code (often numeric) that you use to unlock a device."
  },
  "unlockWithPin": {
    "message": "Unlock with PIN"
  },
  "setYourPinCode": {
    "message": "Set your PIN code for unlocking Pavlok Crypt. Your PIN settings will be reset if you ever fully log out of the application."
  },
  "pinRequired": {
    "message": "PIN code is required."
  },
  "invalidPin": {
    "message": "Invalid PIN code."
  },
  "verifyPin": {
    "message": "Verify PIN"
  },
  "yourVaultIsLockedPinCode": {
    "message": "Your vault is locked. Verify your PIN code to continue."
  },
  "unlockWithBiometrics": {
    "message": "Unlock with biometrics"
  },
  "awaitDesktop": {
    "message": "Awaiting confirmation from desktop"
  },
  "awaitDesktopDesc": {
    "message": "Please confirm using biometrics in the Bitwarden or Pavlok Crypt Desktop application to enable biometrics for browser."
  },
  "lockWithMasterPassOnRestart": {
    "message": "Lock with master password on browser restart"
  },
  "selectOneCollection": {
    "message": "You must select at least one collection."
  },
  "cloneItem": {
    "message": "Clone Item"
  },
  "clone": {
    "message": "Clone"
  },
  "passwordGeneratorPolicyInEffect": {
    "message": "One or more organization policies are affecting your generator settings."
  },
  "vaultTimeoutAction": {
    "message": "Vault Timeout Action"
  },
  "lock": {
    "message": "Lock",
    "description": "Verb form: to make secure or inaccesible by"
  },
  "trash": {
    "message": "Trash",
    "description": "Noun: a special folder to hold deleted items"
  },
  "searchTrash": {
    "message": "Search trash"
  },
  "permanentlyDeleteItem": {
    "message": "Permanently Delete Item"
  },
  "permanentlyDeleteItemConfirmation": {
    "message": "Are you sure you want to permanently delete this item?"
  },
  "permanentlyDeletedItem": {
    "message": "Permanently Deleted item"
  },
  "restoreItem": {
    "message": "Restore Item"
  },
  "restoreItemConfirmation": {
    "message": "Are you sure you want to restore this item?"
  },
  "restoredItem": {
    "message": "Restored Item"
  },
  "vaultTimeoutLogOutConfirmation": {
    "message": "Logging out will remove all access to your vault and requires online authentication after the timeout period. Are you sure you want to use this setting?"
  },
  "vaultTimeoutLogOutConfirmationTitle": {
    "message": "Timeout Action Confirmation"
  },
  "autoFillAndSave": {
    "message": "Auto-fill and Save"
  },
  "autoFillSuccessAndSavedUri": {
    "message": "Auto-filled Item and Saved URI"
  },
  "autoFillSuccess": {
    "message": "Auto-filled Item"
  },
  "setMasterPassword": {
    "message": "Set Master Password"
  },
  "masterPasswordPolicyInEffect": {
    "message": "One or more organization policies require your master password to meet the following requirements:"
  },
  "policyInEffectMinComplexity": {
    "message": "Minimum complexity score of $SCORE$",
    "placeholders": {
      "score": {
        "content": "$1",
        "example": "4"
      }
    }
  },
  "policyInEffectMinLength": {
    "message": "Minimum length of $LENGTH$",
    "placeholders": {
      "length": {
        "content": "$1",
        "example": "14"
      }
    }
  },
  "policyInEffectUppercase": {
    "message": "Contain one or more uppercase characters"
  },
  "policyInEffectLowercase": {
    "message": "Contain one or more lowercase characters"
  },
  "policyInEffectNumbers": {
    "message": "Contain one or more numbers"
  },
  "policyInEffectSpecial": {
    "message": "Contain one or more of the following special characters $CHARS$",
    "placeholders": {
      "chars": {
        "content": "$1",
        "example": "!@#$%^&*"
      }
    }
  },
  "masterPasswordPolicyRequirementsNotMet": {
    "message": "Your new master password does not meet the policy requirements."
  },
  "acceptPolicies": {
    "message": "By checking this box you agree to the following:"
  },
  "acceptPoliciesError": {
    "message": "Terms of Service and Privacy Policy have not been acknowledged."
  },
  "termsOfService": {
    "message": "Terms of Service"
  },
  "privacyPolicy": {
    "message": "Privacy Policy"
  },
  "hintEqualsPassword": {
    "message": "Your password hint cannot be the same as your password."
  },
  "ok": {
    "message": "Ok"
  },
  "desktopSyncVerificationTitle": {
    "message": "Desktop sync verification"
  },
  "desktopIntegrationVerificationText": {
    "message": "Please verify that the desktop application shows this fingerprint: "
  },
  "desktopIntegrationDisabledTitle": {
    "message": "Browser integration is not enabled"
  },
  "desktopIntegrationDisabledDesc": {
    "message": "Browser integration is not enabled in the Bitwarden/Pavlok Crypt Desktop application. Please enable it in the settings within the desktop application."
  },
  "startDesktopTitle": {
    "message": "Start the Bitwarden/Pavlok Crypt Desktop application"
  },
  "startDesktopDesc": {
    "message": "The Bitwarden/Pavlok Crypt Desktop application needs to be started before this function can be used."
  },
  "errorEnableBiometricTitle": {
    "message": "Unable to enable biometrics"
  },
  "errorEnableBiometricDesc": {
    "message": "Action was canceled by the desktop application"
  },
  "nativeMessagingInvalidEncryptionDesc": {
    "message": "Desktop application invalidated the secure communication channel. Please retry this operation"
  },
  "nativeMessagingInvalidEncryptionTitle": {
    "message": "Desktop communication interrupted"
  },
  "nativeMessagingWrongUserDesc": {
    "message": "The desktop application is logged into a different account. Please ensure both applications are logged into the same account."
  },
  "nativeMessagingWrongUserTitle": {
    "message": "Account missmatch"
  },
  "biometricsNotEnabledTitle": {
    "message": "Biometrics not enabled"
  },
  "biometricsNotEnabledDesc": {
    "message": "Browser biometrics requires desktop biometric to be enabled in the settings first."
  },
  "biometricsNotSupportedTitle": {
    "message": "Biometrics not supported"
  },
  "biometricsNotSupportedDesc": {
    "message": "Browser biometrics is not supported on this device."
  },
  "nativeMessaginPermissionErrorTitle": {
    "message": "Permission not provided"
  },
  "nativeMessaginPermissionErrorDesc": {
    "message": "Without permission to communicate with the Bitwarden / Pavlok Crypt Desktop Application we cannot provide biometrics in the browser extension. Please try again."
  },
  "nativeMessaginPermissionSidebarTitle": {
    "message": "Permission request error"
  },
  "nativeMessaginPermissionSidebarDesc": {
    "message": "This action cannot be done in the sidebar, please retry the action in the popup or popout."
  },
  "personalOwnershipSubmitError": {
    "message": "Due to an Enterprise Policy, you are restricted from saving items to your personal vault. Change the Ownership option to an organization and choose from available Collections."
  },
  "personalOwnershipPolicyInEffect": {
    "message": "An organization policy is affecting your ownership options."
  },
  "excludedDomains": {
    "message": "Excluded Domains"
  },
  "excludedDomainsDesc": {
    "message": "Pavlok Crypt will not ask to save login details for these domains. You must refresh the page for changes to take effect."
  },
  "excludedDomainsInvalidDomain": {
    "message": "$DOMAIN$ is not a valid domain",
    "placeholders": {
      "domain": {
        "content": "$1",
        "example": "googlecom"
      }
    }
  },
  "send": {
    "message": "Send",
    "description": "'Send' is a noun and the name of a feature called 'Send'. It should not be translated."
  },
  "searchSends": {
    "message": "Search Sends",
    "description": "'Send' is a noun and the name of a feature called 'Send'. It should not be translated."
  },
  "addSend": {
    "message": "Add Send",
    "description": "'Send' is a noun and the name of a feature called 'Send'. It should not be translated."
  },
  "sendTypeText": {
    "message": "Text"
  },
  "sendTypeFile": {
    "message": "File"
  },
  "allSends": {
    "message": "All Sends",
    "description": "'Send' is a noun and the name of a feature called 'Send'. It should not be translated."
  },
  "maxAccessCountReached": {
    "message": "Max access count reached"
  },
  "expired": {
    "message": "Expired"
  },
  "pendingDeletion": {
    "message": "Pending deletion"
  },
  "passwordProtected": {
    "message": "Password protected"
  },
  "copySendLink": {
    "message": "Copy Send link",
    "description": "'Send' is a noun and the name of a feature called 'Send'. It should not be translated."
  },
  "removePassword": {
    "message": "Remove Password"
  },
  "delete": {
    "message": "Delete"
  },
  "removedPassword": {
    "message": "Removed Password"
  },
  "deletedSend": {
    "message": "Deleted Send",
    "description": "'Send' is a noun and the name of a feature called 'Send'. It should not be translated."
  },
  "sendLink": {
    "message": "Send link",
    "description": "'Send' is a noun and the name of a feature called 'Send'. It should not be translated."
  },
  "disabled": {
    "message": "Disabled"
  },
  "removePasswordConfirmation": {
    "message": "Are you sure you want to remove the password?"
  },
  "deleteSend": {
    "message": "Delete Send",
    "description": "'Send' is a noun and the name of a feature called 'Send'. It should not be translated."
  },
  "deleteSendConfirmation": {
    "message": "Are you sure you want to delete this Send?",
    "description": "'Send' is a noun and the name of a feature called 'Send'. It should not be translated."
  },
  "editSend": {
    "message": "Edit Send",
    "description": "'Send' is a noun and the name of a feature called 'Send'. It should not be translated."
  },
  "sendTypeHeader": {
    "message": "What type of Send is this?",
    "description": "'Send' is a noun and the name of a feature called 'Send'. It should not be translated."
  },
  "sendNameDesc": {
    "message": "A friendly name to describe this Send.",
    "description": "'Send' is a noun and the name of a feature called 'Send'. It should not be translated."
  },
  "sendFileDesc": {
    "message": "The file you want to send."
  },
  "deletionDate": {
    "message": "Deletion Date"
  },
  "deletionDateDesc": {
    "message": "The Send will be permanently deleted on the specified date and time.",
    "description": "'Send' is a noun and the name of a feature called 'Send'. It should not be translated."
  },
  "expirationDate": {
    "message": "Expiration Date"
  },
  "expirationDateDesc": {
    "message": "If set, access to this Send will expire on the specified date and time.",
    "description": "'Send' is a noun and the name of a feature called 'Send'. It should not be translated."
  },
  "oneDay": {
    "message": "1 day"
  },
  "days": {
    "message": "$DAYS$ days",
    "placeholders": {
      "days": {
        "content": "$1",
        "example": "2"
      }
    }
  },
  "custom": {
    "message": "Custom"
  },
  "maximumAccessCount": {
    "message": "Maximum Access Count"
  },
  "maximumAccessCountDesc": {
    "message": "If set, users will no longer be able to access this Send once the maximum access count is reached.",
    "description": "'Send' is a noun and the name of a feature called 'Send'. It should not be translated."
  },
  "sendPasswordDesc": {
    "message": "Optionally require a password for users to access this Send.",
    "description": "'Send' is a noun and the name of a feature called 'Send'. It should not be translated."
  },
  "sendNotesDesc": {
    "message": "Private notes about this Send.",
    "description": "'Send' is a noun and the name of a feature called 'Send'. It should not be translated."
  },
  "sendDisableDesc": {
    "message": "Disable this Send so that no one can access it.",
    "description": "'Send' is a noun and the name of a feature called 'Send'. It should not be translated."
  },
  "sendShareDesc": {
    "message": "Copy this Send's link to clipboard upon save.",
    "description": "'Send' is a noun and the name of a feature called 'Send'. It should not be translated."
  },
  "sendTextDesc": {
    "message": "The text you want to send."
  },
  "sendHideText": {
    "message": "Hide this Send's text by default.",
    "description": "'Send' is a noun and the name of a feature called 'Send'. It should not be translated."
  },
  "currentAccessCount": {
    "message": "Current Access Count"
  },
  "createSend": {
    "message": "Create New Send",
    "description": "'Send' is a noun and the name of a feature called 'Send'. It should not be translated."
  },
  "newPassword": {
    "message": "New Password"
  },
  "sendDisabled": {
    "message": "Send Disabled",
    "description": "'Send' is a noun and the name of a feature called 'Send'. It should not be translated."
  },
  "sendDisabledWarning": {
    "message": "Due to an enterprise policy, you are only able to delete an existing Send.",
    "description": "'Send' is a noun and the name of a feature called 'Send'. It should not be translated."
  },
  "createdSend": {
    "message": "Created Send",
    "description": "'Send' is a noun and the name of a feature called 'Send'. It should not be translated."
  },
  "editedSend": {
    "message": "Edited Send",
    "description": "'Send' is a noun and the name of a feature called 'Send'. It should not be translated."
  },
  "sendLinuxChromiumFileWarning": {
    "message": "In order to choose a file, open the extension in the sidebar (if possible) or pop out to a new window by clicking this banner."
  },
  "sendFirefoxFileWarning": {
    "message": "In order to choose a file using Firefox, open the extension in the sidebar or pop out to a new window by clicking this banner."
  },
  "sendSafariFileWarning": {
    "message": "In order to choose a file using Safari, pop out to a new window by clicking this banner."
  },
  "sendFileCalloutHeader": {
    "message": "Before you start"
  },
  "sendFirefoxCustomDatePopoutMessage1": {
    "message": "To use a calendar style date picker",
    "description": "This will be used as part of a larger sentence, broken up to include links. The full sentence will read '**To use a calendar style date picker ** click here to pop out your window.'"
  },
  "sendFirefoxCustomDatePopoutMessage2": {
    "message": "click here",
    "description": "This will be used as part of a larger sentence, broken up to include links. The full sentence will read 'To use a calendar style date picker **click here** to pop out your window.'"
  },
  "sendFirefoxCustomDatePopoutMessage3": {
    "message": "to pop out your window.",
    "description": "This will be used as part of a larger sentence, broken up to include links. The full sentence will read 'To use a calendar style date picker click here **to pop out your window.**'"
  },
  "expirationDateIsInvalid": {
    "message": "The expiration date provided is not valid."
  },
  "deletionDateIsInvalid": {
    "message": "The deletion date provided is not valid."
  },
  "expirationDateAndTimeRequired": {
    "message": "An expiration date and time are required."
  },
  "deletionDateAndTimeRequired": {
    "message": "A deletion date and time are required."
  },
  "dateParsingError": {
    "message": "There was an error saving your deletion and expiration dates."
  },
  "hideEmail": {
    "message": "Hide my email address from recipients."
  },
  "sendOptionsPolicyInEffect": {
    "message": "One or more organization policies are affecting your Send options."
  }
}
